^D:\DOCUMENTS\FVTC\C++\WEEK 5\ASSIGNMENT\ASSIGNMENT-3-POINTERS\ASSIGNMENT 3 - POINTERS\ASSIGNMENT 3 - POINTERS\X64\DEBUG\MAIN.OBJ
/OUT:"D:\DOCUMENTS\FVTC\C++\WEEK 5\ASSIGNMENT\ASSIGNMENT-3-POINTERS\ASSIGNMENT 3 - POINTERS\X64\DEBUG\ASSIGNMENT 3 - POINTERS.EXE" /INCREMENTAL /NOLOGO KERNEL32.LIB USER32.LIB GDI32.LIB WINSPOOL.LIB COMDLG32.LIB ADVAPI32.LIB SHELL32.LIB OLE32.LIB OLEAUT32.LIB UUID.LIB ODBC32.LIB ODBCCP32.LIB /MANIFEST /MANIFESTUAC:"level='asInvoker' uiAccess='false'" /manifest:embed /DEBUG:FASTLINK /PDB:"D:\DOCUMENTS\FVTC\C++\WEEK 5\ASSIGNMENT\ASSIGNMENT-3-POINTERS\ASSIGNMENT 3 - POINTERS\X64\DEBUG\ASSIGNMENT 3 - POINTERS.PDB" /TLBID:1 /DYNAMICBASE /NXCOMPAT /IMPLIB:"D:\DOCUMENTS\FVTC\C++\WEEK 5\ASSIGNMENT\ASSIGNMENT-3-POINTERS\ASSIGNMENT 3 - POINTERS\X64\DEBUG\ASSIGNMENT 3 - POINTERS.LIB" /MACHINE:X64 X64\DEBUG\MAIN.OBJ
^D:\DOCUMENTS\FVTC\C++\WEEK 5\ASSIGNMENT\ASSIGNMENT 3 - POINTERS\X64\DEBUG\MAIN.OBJ
/OUT:"D:\DOCUMENTS\FVTC\C++\WEEK 5\ASSIGNMENT\ASSIGNMENT 3 - POINTERS\X64\DEBUG\ASSIGNMENT 3 - POINTERS.EXE" /INCREMENTAL /NOLOGO KERNEL32.LIB USER32.LIB GDI32.LIB WINSPOOL.LIB COMDLG32.LIB ADVAPI32.LIB SHELL32.LIB OLE32.LIB OLEAUT32.LIB UUID.LIB ODBC32.LIB ODBCCP32.LIB /MANIFEST /MANIFESTUAC:"level='asInvoker' uiAccess='false'" /manifest:embed /DEBUG:FASTLINK /PDB:"D:\DOCUMENTS\FVTC\C++\WEEK 5\ASSIGNMENT\ASSIGNMENT 3 - POINTERS\X64\DEBUG\ASSIGNMENT 3 - POINTERS.PDB" /TLBID:1 /DYNAMICBASE /NXCOMPAT /IMPLIB:"D:\DOCUMENTS\FVTC\C++\WEEK 5\ASSIGNMENT\ASSIGNMENT 3 - POINTERS\X64\DEBUG\ASSIGNMENT 3 - POINTERS.LIB" /MACHINE:X64 X64\DEBUG\MAIN.OBJ
